0
3
0
0
0
57
0
0
0
0
0
0
0
0
0
0
0
0
0
0
0
0
0
0
0
21
0
71
0
0
0
56
0
0
0
0
0
0
0
0
0
0
0
0
0
0
0
0
0
0
0
11
0
21
0
0
0
8
0
0
0
0
0
0
0
0
0
0
0
0
0
0
0
0
0
0
0
87
0
10
0
0
0
91
0
0
0
0
0
0
0
0
0
0
0
0
0
0
0
0
0
0
0
5
0
0
0
0
0
22
0
0
0
0
0
0
0
0
0
0
0
0
0
0
0
76
0
0
0
0
0
50
0
0
0
67
0
0
0
0
0
0
0
0
0
0
0
0
0
0
0
97
0
0
0
55
0
59
0
0
0
39
0
0
0
0
0
0
0
0
0
0
0
0
0
0
0
82
0
0
0
63
0
24
0
0
0
17
0
0
0
0
0
0
0
0
0
0
0
0
0
0
0
77
0
0
0
15
0
89
0
0
0
99
0
0
0
0
0
0
0
0
0
0
0
0
0
0
0
74
0
0
0
12
0
0
0
0
0
64
0
0
0
0
0
0
0
0
0
0
0
0
0
0
0
76
0
0
0
0
0
20
0
0
0
57
0
0
0
0
0
0
0
0
0
0
0
0
0
0
0
57
0
0
0
39
0
16
0
0
0
59
0
0
0
0
0
0
0
0
0
0
0
0
0
0
0
45
0
0
0
92
0
49
0
0
0
77
0
0
0
0
0
0
0
0
0
0
0
0
0
0
0
69
0
0
0
25
0
31
0
0
0
47
0
0
0
0
0
0
0
0
0
0
0
0
0
0
0
61
0
0
0
74
0
0
0
0
0
7
0
0
0
0
0
0
0
0
0
0
0
0
0
0
0
77
0
0
0
0
0
97
0
0
0
70
0
0
0
0
0
0
0
0
0
0
0
0
0
0
0
49
0
0
0
50
0
38
0
0
0
60
0
0
0
0
0
0
0
0
0
0
0
0
0
0
0
98
0
0
0
21
0
58
0
0
0
52
0
0
0
0
0
0
0
0
0
0
0
0
0
0
0
92
0
0
0
26
0
42
0
0
0
13
0
0
0
0
0
0
0
0
0
0
0
0
0
0
0
62
0
0
0
18
0
0
0
0
0
19
0
0
0
0
0
0
0
0
0
0
0
0
0
0
0
64
0
0
0
0
0
77
0
0
0
0
0
0
0
0
0
0
0
0
0
0
0
0
0
0
0
84
0
0
0
41
0
17
0
0
0
0
0
0
0
0
0
0
0
0
0
0
0
0
0
0
0
42
0
0
0
52
0
29
0
0
0
0
0
0
0
0
0
0
0
0
0
0
0
0
0
0
0
26
0
0
0
77
0
2
0
0
0
0
0
0
0
0
0
0
0
0
0
0
0
0
0
0
0
4
0
0
0
14
0
