1 0 0.641599429865 
2 0 0.568458807301 
3 0 0.613977552225 
4 0 0.718583118073 
5 0 0.793066378698 
1 1 0.932723276082 
2 1 0.915496786662 
3 1 0.897553325415 
4 1 0.876466633325 
5 1 0.85315893881 
1 2 0.938487426283 
2 2 0.921190024841 
3 2 0.902419183906 
4 2 0.881720443337 
5 2 0.859366115429 
1 3 0.939192726614 
2 3 0.921779066892 
3 3 0.902642743502 
4 3 0.881427863384 
5 3 0.857676218786 
1 4 0.938829907372 
2 4 0.921042901644 
3 4 0.901539455354 
4 4 0.880108611631 
5 4 0.856078334051 
